%YAML 1.1
%TAG !u! tag:unity3d.com,2011:
--- !u!1 &3199967889386671709 stripped
GameObject:
  m_CorrespondingSourceObject: {fileID: 460320166019675485, guid: b7006aa8a4b26034b82b431f79c7c291,
    type: 3}
  m_PrefabInstance: {fileID: 3029782457953139456}
  m_PrefabAsset: {fileID: 0}
--- !u!1001 &3029782457953139456
PrefabInstance:
  m_ObjectHideFlags: 0
  serializedVersion: 2
  m_Modification:
    m_TransformParent: {fileID: 0}
    m_Modifications:
    - target: {fileID: 1528185838987990215, guid: b7006aa8a4b26034b82b431f79c7c291,
        type: 3}
      propertyPath: m_LocalPosition.x
      value: 0
      objectReference: {fileID: 0}
    - target: {fileID: 1528185838987990215, guid: b7006aa8a4b26034b82b431f79c7c291,
        type: 3}
      propertyPath: m_LocalPosition.y
      value: 0
      objectReference: {fileID: 0}
    - target: {fileID: 1528185838987990215, guid: b7006aa8a4b26034b82b431f79c7c291,
        type: 3}
      propertyPath: m_LocalPosition.z
      value: 0
      objectReference: {fileID: 0}
    - target: {fileID: 1528185838987990215, guid: b7006aa8a4b26034b82b431f79c7c291,
        type: 3}
      propertyPath: m_LocalRotation.x
      value: 0
      objectReference: {fileID: 0}
    - target: {fileID: 1528185838987990215, guid: b7006aa8a4b26034b82b431f79c7c291,
        type: 3}
      propertyPath: m_LocalRotation.y
      value: 0
      objectReference: {fileID: 0}
    - target: {fileID: 1528185838987990215, guid: b7006aa8a4b26034b82b431f79c7c291,
        type: 3}
      propertyPath: m_LocalRotation.z
      value: 0
      objectReference: {fileID: 0}
    - target: {fileID: 1528185838987990215, guid: b7006aa8a4b26034b82b431f79c7c291,
        type: 3}
      propertyPath: m_LocalRotation.w
      value: 1
      objectReference: {fileID: 0}
    - target: {fileID: 1528185838987990215, guid: b7006aa8a4b26034b82b431f79c7c291,
        type: 3}
      propertyPath: m_RootOrder
      value: 0
      objectReference: {fileID: 0}
    - target: {fileID: 1528185838987990215, guid: b7006aa8a4b26034b82b431f79c7c291,
        type: 3}
      propertyPath: m_LocalEulerAnglesHint.x
      value: 0
      objectReference: {fileID: 0}
    - target: {fileID: 1528185838987990215, guid: b7006aa8a4b26034b82b431f79c7c291,
        type: 3}
      propertyPath: m_LocalEulerAnglesHint.y
      value: 0
      objectReference: {fileID: 0}
    - target: {fileID: 1528185838987990215, guid: b7006aa8a4b26034b82b431f79c7c291,
        type: 3}
      propertyPath: m_LocalEulerAnglesHint.z
      value: 0
      objectReference: {fileID: 0}
    - target: {fileID: 1528185838987990212, guid: b7006aa8a4b26034b82b431f79c7c291,
        type: 3}
      propertyPath: m_Name
      value: SoldierYellow
      objectReference: {fileID: 0}
    - target: {fileID: 5212630505731911871, guid: b7006aa8a4b26034b82b431f79c7c291,
        type: 3}
      propertyPath: m_Mesh
      value: 
      objectReference: {fileID: 0}
    - target: {fileID: 1083152255585496682, guid: b7006aa8a4b26034b82b431f79c7c291,
        type: 3}
      propertyPath: m_havePropertiesChanged
      value: 0
      objectReference: {fileID: 0}
    - target: {fileID: 1083152255585496682, guid: b7006aa8a4b26034b82b431f79c7c291,
        type: 3}
      propertyPath: m_isInputParsingRequired
      value: 0
      objectReference: {fileID: 0}
    - target: {fileID: 1528185839912488346, guid: b7006aa8a4b26034b82b431f79c7c291,
        type: 3}
      propertyPath: m_Materials.Array.data[0]
      value: 
      objectReference: {fileID: 2100000, guid: 88d5ac4f61a564d47b60629f52007184, type: 2}
    - target: {fileID: 1528185839903186524, guid: b7006aa8a4b26034b82b431f79c7c291,
        type: 3}
      propertyPath: m_Materials.Array.data[1]
      value: 
      objectReference: {fileID: 2100000, guid: 0f1a5013709deb34487fbfd43e26dca6, type: 2}
    - target: {fileID: 8250809100234531090, guid: b7006aa8a4b26034b82b431f79c7c291,
        type: 3}
      propertyPath: isPlayerArmy
      value: 0
      objectReference: {fileID: 0}
    - target: {fileID: 8250809100234531090, guid: b7006aa8a4b26034b82b431f79c7c291,
        type: 3}
      propertyPath: hover
      value: 
      objectReference: {fileID: 3199967889386671709}
    - target: {fileID: 460320166019675485, guid: b7006aa8a4b26034b82b431f79c7c291,
        type: 3}
      propertyPath: m_IsActive
      value: 0
      objectReference: {fileID: 0}
    m_RemovedComponents: []
  m_SourcePrefab: {fileID: 100100000, guid: b7006aa8a4b26034b82b431f79c7c291, type: 3}
